STA 3311 Sports Analytics II - 13 Clustering
…
player_stats |> filter(cluster == 2) |> 
  select(position) |> 
  table()

position
 C  F PF PG SF SG 
 3  1  5 19  7 13 

Most of these players in cluster 2 are guards. Let’s look at the players in this cluster.

player_stats |> 
  filter(cluster==2) |> 
  select(athlete_display_name)

# A tibble: 48 × 1
   athlete_display_name
   <chr>               
 1 Anthony Edwards     
 2 Bradley Beal        
 3 Brandon Ingram      
 4 CJ McCollum         
 5 Cade Cunningham     
 6 Chris Paul          
 7 Cole Anthony        
 8 D'Angelo Russell    
 9 Darius Garland      
10 De'Aaron Fox        
# ℹ 38 more rows
…
