STA 3311 Sports Analytics II - 14 Dimensionality Reduction
…
# PCA with tidymodels
pca_recipe <- recipe(~., data = dat) %>%
  step_normalize(all_predictors()) %>%
  #Get enough PCs to get 95% of variance
  step_pca(all_predictors(), threshold = .95) |>  
  prep()

# Extract the PCA results
pca_results <- bake(pca_recipe, new_data = NULL)

# View the results
print(pca_results)

# A tibble: 53 × 3
      PC1     PC2      PC3
    <dbl>   <dbl>    <dbl>
 1 -1.25  -0.0800 -0.0304 
 2 -0.696  0.283  -0.341  
 3 -1.44  -0.0152 -0.0698 
 4 -1.36  -0.0432  0.00207
 5 -1.44  -0.0152 -0.0698 
 6  2.45  -1.19    0.357  
 7 -1.43  -0.0193 -0.0694 
 8 -1.44  -0.0152 -0.0698 
 9  7.22  -2.23    1.25   
10 -1.44  -0.0152 -0.0698 
# ℹ 43 more rows
…
