STA 3311 Sports Analytics II - 16 DBSCAN
…
dat = shots_recipe |> bake(new_data = NULL)

We then define the DBSCAN model, specifying the parameters \(\epsilon\) (eps) and MinPts (minPts). Initially, you may choose exploratory parameter values to understand their impact:

library(dbscan)
fitted_model = dat |> dbscan(eps=0.5, minPts=3)

Extract cluster assignments from the fitted model:

shots_clustered = shots_df |>
  mutate(cluster = fitted_model |> pluck("cluster"))

shots_clustered

# A tibble: 85 × 3
   coordinate_x coordinate_y cluster
          <dbl>        <dbl>   <int>
 1        -35.8            3       1
 2        -36.8            0       1
 3        -27.8           10       1
 4        -26.8            6       1
 5        -40.8           -2       1
 6        -23.8           17       2
 7        -39.8            2       1
 8        -40.8            3       1
 9        -39.8            6       1
10        -34.8          -16       0
# ℹ 75 more rows
…
