STA 3311 Sports Analytics II - 19 Intro to Rankings
…
19.7.3 Step 3: Apply the Colley and Massey Rankings

# Colley Ranking
colley_rankings = rank_colley(matches)
print(colley_rankings) |> 
  arrange(ranking_colley)

# A tibble: 229 × 2
   player            ranking_colley
   <chr>                      <dbl>
 1 Abilene Christian            207
 2 Air Force                     47
 3 Akron                        228
 4 Alabama                        3
 5 Alabama A&M                  203
 6 Alcorn State                 199
 7 App State                     51
 8 Arizona                       22
 9 Arizona State                111
10 Arkansas                     108
# ℹ 219 more rows

# A tibble: 229 × 2
   player        ranking_colley
   <chr>                  <dbl>
 1 Washington                 1
 2 Michigan                   2
 3 Alabama                    3
 4 Florida State              4
 5 Texas                      5
 6 Ohio State                 6
 7 Georgia                    7
 8 Oregon                     8
 9 Penn State                 9
10 James Madison             10
# ℹ 219 more rows

# Massey Ranking
massey_rankings = rank_massey(matches)
print(massey_rankings)|> 
  arrange(ranking_massey)

# A tibble: 229 × 2
   player            ranking_massey
   <chr>                      <dbl>
 1 Abilene Christian            148
 2 Air Force                     64
 3 Akron                        168
 4 Alabama                       13
 5 Alabama A&M                  212
 6 Alcorn State                 213
 7 App State                     72
 8 Arizona                       16
 9 Arizona State                 82
10 Arkansas                      66
# ℹ 219 more rows

# A tibble: 229 × 2
   player       ranking_massey
   <chr>                 <dbl>
 1 Oregon                    1
 2 Michigan                  2
 3 Ohio State                3
 4 Penn State                4
 5 Texas                     5
 6 Oklahoma                  6
 7 Georgia                   7
 8 Notre Dame                8
 9 Kansas State              9
10 Washington               10
# ℹ 219 more rows
…
